digraph IncrementingLoop {
node1 [label="Start"]
node2 [label="i = 1"]
node3 [label="Loop"]
node4 [label="i++"]
node5 [label="End"]

node1 -> node2
node2 -> node3
node3 -> node4 [label="i < 10"]
node3 -> node5 [label="i == 10"]
node4 -> node3
}
