digraph NestedLoops {
node1 [label="Start"]
node2 [label="i = 1"]
node3 [label="Loop"]
node4 [label="j = 1"]
node5 [label="Loop"]
node6 [label="j++"]
node7 [label="i++"]
node8 [label="End"]

node1 -> node2
node2 -> node3
node3 -> node4 [label="i < 2"]
node3 -> node8 [label="i == 2"]
node4 -> node5
node5 -> node6 [label="j < 2"]
node5 -> node7 [label="j == 2"]
node6 -> node5
node7 -> node3
}
