>>Request

LOCK /workspace/webdav/proposal.doc HTTP/1.1
Host: webdav.sb.aol.com
Timeout: Infinite, Second-4100000000
If: (<opaquelocktoken:e71d4fae-5dec-22d6-fea5-00a0c91e6be4>)
Authorization: Digest username="ejw",
   realm="ejw@webdav.sb.aol.com", nonce="...",
   uri="/workspace/webdav/proposal.doc",
   response="...", opaque="..."

>>Response

HTTP/1.1 200 OK
Content-Type: text/xml; charset="utf-8"
Content-Length: xxxx

<?xml version="1.0" encoding="utf-8" ?>
<D:prop xmlns:D="DAV:">
  <D:lockdiscovery>
       <D:activelock>
            <D:locktype><D:write/></D:locktype>
            <D:lockscope><D:exclusive/></D:lockscope>
            <D:depth>Infinity</D:depth>
            <D:owner>
                 <D:href>
                 http://www.ics.uci.edu/~ejw/contact.html
                 </D:href>
            </D:owner>
            <D:timeout>Second-604800</D:timeout>
            <D:locktoken>
                 <D:href>
            opaquelocktoken:e71d4fae-5dec-22d6-fea5-00a0c91e6be4
                 </D:href>
            </D:locktoken>
       </D:activelock>
  </D:lockdiscovery>
</D:prop>

